%FSLAX34Y34*%
%MOMM*%
%LNCOPPER_TOP*%
G71*
G01*
%ADD10C, 0.00*%
%ADD11R, 1.00X4.00*%
%ADD12R, 1.00X2.80*%
%ADD13R, 1.00X3.00*%
%ADD14R, 2.00X1.55*%
%ADD15R, 2.00X1.64*%
%ADD16R, 2.00X1.00*%
%ADD17R, 4.12X4.00*%
%ADD18C, 2.20*%
%ADD19C, 1.00*%
%ADD20R, 1.51X2.25*%
%ADD21R, 3.41X3.35*%
%ADD22R, 1.80X1.38*%
%ADD23C, 1.66*%
%ADD24C, 0.50*%
%ADD25C, 0.92*%
%ADD26C, 0.70*%
%ADD27C, 0.33*%
%ADD28C, 0.26*%
%ADD29C, 4.12*%
%ADD30C, 2.36*%
%ADD31C, 1.13*%
%ADD32R, 2.00X2.28*%
%ADD33R, 2.00X2.50*%
%ADD34R, 0.60X2.91*%
%ADD35C, 0.90*%
%ADD36C, 0.80*%
%ADD37C, 0.91*%
%ADD38R, 1.60X1.60*%
%ADD39R, 4.00X4.00*%
%ADD40R, 3.14X4.00*%
%ADD41C, 1.50*%
%ADD42C, 2.20*%
%ADD43C, 1.11*%
%ADD44C, 1.44*%
%ADD45C, 1.10*%
%ADD46C, 1.72*%
%ADD47C, 0.60*%
%ADD48C, 2.50*%
%ADD49C, 1.30*%
%ADD50C, 0.17*%
%ADD51C, 0.12*%
%ADD52C, 1.70*%
%LPD*%
G54D10*
X0Y0D02*
X500000Y0D01*
X500000Y-330000D01*
X0Y-330000D01*
X0Y0D01*
X355075Y-53525D02*
G54D11*
D03*
X355075Y-213525D02*
G54D11*
D03*
X335075Y-53525D02*
G54D11*
D03*
X335075Y-213525D02*
G54D11*
D03*
X315075Y-53525D02*
G54D12*
D03*
X315075Y-213525D02*
G54D11*
D03*
X295075Y-53525D02*
G54D11*
D03*
X295075Y-213525D02*
G54D11*
D03*
X275075Y-53525D02*
G54D11*
D03*
X275075Y-213525D02*
G54D11*
D03*
X255075Y-53525D02*
G54D11*
D03*
X255075Y-213525D02*
G54D11*
D03*
X235075Y-53525D02*
G54D11*
D03*
X235075Y-213525D02*
G54D11*
D03*
X215075Y-56700D02*
G54D13*
D03*
X412906Y-80794D02*
G54D14*
D03*
X412906Y-110162D02*
G54D15*
D03*
X413700Y-136356D02*
G54D16*
D03*
X458938Y-112122D02*
G54D17*
D03*
X201978Y-25112D02*
G54D18*
D03*
X227378Y-25112D02*
G54D18*
D03*
G54D19*
X234125Y-36519D02*
X227378Y-25112D01*
X487438Y-165094D02*
G54D20*
D03*
X462725Y-164500D02*
G54D20*
D03*
X437325Y-164500D02*
G54D20*
D03*
X461275Y-220700D02*
G54D21*
D03*
G54D19*
X461931Y-167350D02*
X462725Y-151475D01*
X461931Y-143538D01*
X419069Y-143538D01*
X407956Y-164969D01*
X395681Y-75506D02*
G54D22*
D03*
G54D23*
X117047Y-37812D02*
X113872Y-47234D01*
X114269Y-69619D01*
G36*
X401756Y-227848D02*
X408191Y-221412D01*
X417321Y-221412D01*
X423756Y-227848D01*
X423756Y-236978D01*
X417321Y-243412D01*
X408191Y-243412D01*
X401756Y-236978D01*
X401756Y-227848D01*
G37*
X302078Y-25181D02*
G54D18*
D03*
G36*
X99444Y-301509D02*
X122744Y-301509D01*
X122744Y-324809D01*
X99444Y-324809D01*
X99444Y-301509D01*
G37*
G36*
X125794Y-257919D02*
X132054Y-251659D01*
X140934Y-251659D01*
X147194Y-257919D01*
X147194Y-266799D01*
X140934Y-273059D01*
X132054Y-273059D01*
X125794Y-266799D01*
X125794Y-257919D01*
G37*
G36*
X148944Y-256985D02*
X156520Y-249409D01*
X167268Y-249409D01*
X174844Y-256985D01*
X174844Y-267733D01*
X167268Y-275309D01*
X156520Y-275309D01*
X148944Y-267733D01*
X148944Y-256985D01*
G37*
G36*
X74994Y-257919D02*
X81254Y-251659D01*
X90134Y-251659D01*
X96394Y-257919D01*
X96394Y-266799D01*
X90134Y-273059D01*
X81254Y-273059D01*
X74994Y-266799D01*
X74994Y-257919D01*
G37*
G36*
X47344Y-249409D02*
X73244Y-249409D01*
X73244Y-275309D01*
X47344Y-275309D01*
X47344Y-249409D01*
G37*
G36*
X401719Y-177572D02*
X408154Y-171138D01*
X417284Y-171138D01*
X423719Y-177572D01*
X423719Y-186702D01*
X417284Y-193138D01*
X408154Y-193138D01*
X401719Y-186702D01*
X401719Y-177572D01*
G37*
G54D19*
X111094Y-313159D02*
X148797Y-308772D01*
X363903Y-307978D01*
G54D24*
X103981Y-245269D02*
X146844Y-243681D01*
X166458Y-244188D01*
X174625Y-245666D01*
X186103Y-256094D01*
G54D19*
X60294Y-262359D02*
X58706Y-256094D01*
X63469Y-256094D01*
G36*
X156053Y-25225D02*
X178053Y-25225D01*
X178053Y-47225D01*
X156053Y-47225D01*
X156053Y-25225D01*
G37*
G36*
X106047Y-26812D02*
X128047Y-26812D01*
X128047Y-48812D01*
X106047Y-48812D01*
X106047Y-26812D01*
G37*
G36*
X274769Y-272960D02*
X281204Y-266525D01*
X290334Y-266525D01*
X296769Y-272960D01*
X296769Y-282090D01*
X290334Y-288525D01*
X281204Y-288525D01*
X274769Y-282090D01*
X274769Y-272960D01*
G37*
G36*
X300169Y-272960D02*
X306604Y-266525D01*
X315734Y-266525D01*
X322169Y-272960D01*
X322169Y-282090D01*
X315734Y-288525D01*
X306604Y-288525D01*
X300169Y-282090D01*
X300169Y-272960D01*
G37*
G36*
X325569Y-272960D02*
X332004Y-266525D01*
X341134Y-266525D01*
X347569Y-272960D01*
X347569Y-282090D01*
X341134Y-288525D01*
X332004Y-288525D01*
X325569Y-282090D01*
X325569Y-272960D01*
G37*
G36*
X350969Y-272960D02*
X357404Y-266525D01*
X366534Y-266525D01*
X372969Y-272960D01*
X372969Y-282090D01*
X366534Y-288525D01*
X357404Y-288525D01*
X350969Y-282090D01*
X350969Y-272960D01*
G37*
G54D19*
X275400Y-230694D02*
X275003Y-253712D01*
X279369Y-265619D01*
X280956Y-275938D01*
G54D19*
X295244Y-230694D02*
X302388Y-262444D01*
X310325Y-275144D01*
G54D19*
X315088Y-231488D02*
X322628Y-255697D01*
X333344Y-275144D01*
G54D19*
X335725Y-232281D02*
X346044Y-254903D01*
X362712Y-275938D01*
X251984Y-25112D02*
G54D18*
D03*
X277384Y-25112D02*
G54D18*
D03*
G54D19*
X296434Y-40591D02*
X302078Y-25181D01*
G54D19*
X276591Y-43369D02*
X277384Y-25112D01*
G54D19*
X253969Y-35431D02*
X251984Y-25112D01*
G36*
X224012Y-272691D02*
X230448Y-266256D01*
X239578Y-266256D01*
X246012Y-272691D01*
X246012Y-281821D01*
X239578Y-288256D01*
X230448Y-288256D01*
X224012Y-281821D01*
X224012Y-272691D01*
G37*
G36*
X24088Y-143581D02*
X24088Y-168581D01*
X-912Y-168581D01*
X-912Y-143581D01*
X24088Y-143581D01*
G37*
G36*
X74888Y-168981D02*
X74888Y-193981D01*
X49888Y-193981D01*
X49888Y-168981D01*
X74888Y-168981D01*
G37*
G36*
X74888Y-194381D02*
X74888Y-219381D01*
X49888Y-219381D01*
X49888Y-194381D01*
X74888Y-194381D01*
G37*
G36*
X74888Y-118181D02*
X74888Y-143181D01*
X49888Y-143181D01*
X49888Y-118181D01*
X74888Y-118181D01*
G37*
G36*
X74888Y-92781D02*
X74888Y-117781D01*
X49888Y-117781D01*
X49888Y-92781D01*
X74888Y-92781D01*
G37*
G54D25*
X15628Y-248128D02*
X14834Y-317819D01*
G54D19*
X362712Y-36088D02*
X384938Y-36881D01*
X394462Y-53550D01*
X406369Y-77362D01*
G54D19*
X355172Y-228175D02*
X378984Y-228175D01*
X381325Y-169438D01*
X388031Y-113081D01*
X408750Y-110700D01*
G54D26*
X136564Y-288506D02*
X97741Y-287978D01*
X65734Y-300416D01*
X26797Y-300941D01*
X26797Y-256888D01*
X31162Y-251331D01*
X31162Y-82262D01*
X92472Y-82153D01*
X112681Y-71944D01*
G36*
X230903Y-300353D02*
X250903Y-300353D01*
X250903Y-320353D01*
X230903Y-320353D01*
X230903Y-300353D01*
G37*
G36*
X256303Y-300353D02*
X276303Y-300353D01*
X276303Y-320353D01*
X256303Y-320353D01*
X256303Y-300353D01*
G37*
G36*
X380969Y-63156D02*
X408969Y-63156D01*
X408969Y-91156D01*
X380969Y-91156D01*
X380969Y-63156D01*
G37*
G36*
X383056Y-99375D02*
X410056Y-99375D01*
X410056Y-126375D01*
X383056Y-126375D01*
X383056Y-99375D01*
G37*
G54D27*
X14969Y-7365D02*
X24302Y-26031D01*
X33635Y-7365D01*
G54D27*
X40169Y-14365D02*
X49502Y-7365D01*
X49502Y-26031D01*
G54D27*
X56035Y-26031D02*
X56035Y-26031D01*
G54D27*
X62568Y-22531D02*
X64434Y-24865D01*
X68168Y-26031D01*
X71901Y-26031D01*
X75634Y-24865D01*
X77501Y-22531D01*
X77501Y-16698D01*
X77501Y-15531D01*
X71901Y-17865D01*
X68168Y-17865D01*
X64434Y-16698D01*
X62568Y-14365D01*
X62568Y-10865D01*
X64434Y-8531D01*
X68168Y-7365D01*
X71901Y-7365D01*
X75634Y-8531D01*
X77501Y-10865D01*
X77501Y-16698D01*
G54D27*
X95234Y-26031D02*
X95234Y-7365D01*
X84034Y-19031D01*
X84034Y-21365D01*
X98967Y-21365D01*
G54D28*
X390493Y-27831D02*
X383338Y-27831D01*
X383338Y-7387D01*
X390493Y-7387D01*
G54D28*
X383338Y-17609D02*
X390493Y-17609D01*
G54D28*
X396138Y-23998D02*
X397160Y-26553D01*
X399204Y-27831D01*
X401249Y-27831D01*
X403293Y-26553D01*
X404315Y-23998D01*
X404315Y-21442D01*
X403293Y-18887D01*
X401249Y-17609D01*
X399204Y-17609D01*
X397160Y-16331D01*
X396138Y-13776D01*
X396138Y-11220D01*
X397160Y-8665D01*
X399204Y-7387D01*
X401249Y-7387D01*
X403293Y-8665D01*
X404315Y-11220D01*
G54D28*
X409938Y-27831D02*
X409938Y-7387D01*
X415049Y-7387D01*
X417093Y-8665D01*
X418115Y-11220D01*
X418115Y-13776D01*
X417093Y-16331D01*
X415049Y-17609D01*
X409938Y-17609D01*
G54D28*
X423738Y-27831D02*
X423738Y-7387D01*
X428849Y-7387D01*
X430893Y-8665D01*
X431915Y-11220D01*
X431915Y-13776D01*
X430893Y-16331D01*
X428849Y-17609D01*
X423738Y-17609D01*
G54D28*
X445715Y-11220D02*
X445715Y-23998D01*
X444693Y-26553D01*
X442649Y-27831D01*
X440604Y-27831D01*
X438560Y-26553D01*
X437538Y-23998D01*
X437538Y-11220D01*
X438560Y-8665D01*
X440604Y-7387D01*
X442649Y-7387D01*
X444693Y-8665D01*
X445715Y-11220D01*
G54D28*
X451338Y-7387D02*
X451338Y-27831D01*
X456449Y-15053D01*
X461560Y-27831D01*
X461560Y-7387D01*
G54D28*
X474293Y-27831D02*
X467138Y-27831D01*
X467138Y-7387D01*
X474293Y-7387D01*
G54D28*
X467138Y-17609D02*
X474293Y-17609D01*
G54D28*
X484026Y-17609D02*
X487093Y-20165D01*
X488115Y-22720D01*
X488115Y-27831D01*
G54D28*
X479938Y-27831D02*
X479938Y-7387D01*
X485049Y-7387D01*
X487093Y-8665D01*
X488115Y-11220D01*
X488115Y-13776D01*
X487093Y-16331D01*
X485049Y-17609D01*
X479938Y-17609D01*
G36*
X249412Y-272691D02*
X255848Y-266256D01*
X264978Y-266256D01*
X271412Y-272691D01*
X271412Y-281821D01*
X264978Y-288256D01*
X255848Y-288256D01*
X249412Y-281821D01*
X249412Y-272691D01*
G37*
G36*
X281703Y-301147D02*
X301703Y-301147D01*
X301703Y-321147D01*
X281703Y-321147D01*
X281703Y-301147D01*
G37*
G36*
X307103Y-301147D02*
X327103Y-301147D01*
X327103Y-321147D01*
X307103Y-321147D01*
X307103Y-301147D01*
G37*
X38100Y-52688D02*
G54D29*
D03*
X110775Y-124894D02*
G54D30*
D03*
G36*
X401719Y-202572D02*
X408154Y-196138D01*
X417284Y-196138D01*
X423719Y-202572D01*
X423719Y-211702D01*
X417284Y-218138D01*
X408154Y-218138D01*
X401719Y-211702D01*
X401719Y-202572D01*
G37*
G54D31*
X295275Y-69356D02*
X295275Y-83644D01*
X279400Y-99519D01*
X256381Y-99519D01*
X253206Y-101106D01*
X257175Y-99519D01*
X243681Y-104281D01*
X88106Y-104281D01*
G54D19*
X110775Y-124894D02*
X144462Y-126506D01*
X290512Y-126506D01*
X315119Y-101900D01*
X315119Y-67769D01*
G54D19*
X234950Y-276525D02*
X234950Y-231281D01*
X397094Y-318253D02*
G54D32*
D03*
X396300Y-269459D02*
G54D33*
D03*
X483612Y-265491D02*
G54D33*
D03*
X483912Y-317053D02*
G54D33*
D03*
X422350Y-259472D02*
G54D34*
D03*
X455144Y-259472D02*
G54D34*
D03*
G54D19*
X423069Y-230350D02*
X429022Y-225191D01*
X436562Y-191456D01*
X437356Y-175581D01*
X457994Y-52512D02*
G54D29*
D03*
X110775Y-150288D02*
G54D30*
D03*
G54D19*
X110775Y-175688D02*
X104775Y-204391D01*
X104775Y-240012D01*
G54D35*
X42466Y-118569D02*
X62388Y-105281D01*
X110775Y-175688D02*
G54D30*
D03*
G36*
X198612Y-272691D02*
X205048Y-266256D01*
X214178Y-266256D01*
X220612Y-272691D01*
X220612Y-281821D01*
X214178Y-288256D01*
X205048Y-288256D01*
X198612Y-281821D01*
X198612Y-272691D01*
G37*
G36*
X332503Y-301147D02*
X352503Y-301147D01*
X352503Y-321147D01*
X332503Y-321147D01*
X332503Y-301147D01*
G37*
X483862Y-293272D02*
G54D33*
D03*
G54D19*
X232966Y-306231D02*
X349647Y-307025D01*
X348059Y-317344D01*
X232172Y-317344D01*
G54D19*
X98425Y-305497D02*
X98425Y-301528D01*
X126206Y-301528D01*
X127000Y-302322D01*
X126603Y-302419D01*
X126603Y-319784D01*
X99219Y-319784D01*
X98425Y-318991D01*
X98425Y-306291D01*
G54D36*
X42466Y-118569D02*
X42825Y-233662D01*
X49175Y-255094D01*
X63462Y-255094D01*
G54D19*
X409538Y-81125D02*
X488912Y-81125D01*
G54D36*
X421047Y-250194D02*
X407156Y-250194D01*
X394456Y-247812D01*
X393266Y-220428D01*
X400019Y-213538D01*
X412719Y-207138D01*
G54D37*
X110775Y-150288D02*
X311509Y-150319D01*
X334131Y-124919D01*
G54D35*
X334925Y-124125D02*
X334925Y-66181D01*
G54D36*
X458750Y-247812D02*
X490500Y-247812D01*
X491294Y-247019D01*
X86300Y-237384D02*
G54D38*
D03*
X86300Y-207003D02*
G54D38*
D03*
X257438Y-233300D02*
G54D38*
D03*
X257075Y-262381D02*
G54D38*
D03*
X360006Y-26472D02*
G54D38*
D03*
X332006Y-26472D02*
G54D38*
D03*
X45422Y-299297D02*
G54D38*
D03*
X45422Y-271297D02*
G54D38*
D03*
X396300Y-294441D02*
G54D32*
D03*
X25762Y-52369D02*
G54D39*
D03*
X62162Y-52369D02*
G54D39*
D03*
X468562Y-52369D02*
G54D39*
D03*
X446338Y-52369D02*
G54D40*
D03*
G54D19*
X408238Y-141131D02*
X416175Y-149069D01*
G54D41*
X45422Y-271297D02*
X56606Y-261125D01*
G54D42*
X47081Y-262316D02*
X85694Y-262359D01*
G54D41*
X62388Y-206881D02*
X86300Y-207003D01*
G54D41*
X85694Y-262359D02*
X60294Y-262359D01*
G54D41*
X201978Y-25112D02*
X167053Y-36225D01*
G54D43*
X15628Y-248128D02*
X16272Y-175022D01*
X11588Y-156081D01*
G54D19*
X14834Y-317819D02*
X109506Y-317922D01*
G54D19*
X234919Y-67475D02*
X234919Y-85494D01*
X143241Y-85494D01*
X114666Y-70809D01*
G54D19*
X488912Y-156531D02*
X488912Y-81125D01*
G36*
X401719Y-152966D02*
X408154Y-146531D01*
X417284Y-146531D01*
X423719Y-152966D01*
X423719Y-162096D01*
X417284Y-168531D01*
X408154Y-168531D01*
X401719Y-162096D01*
X401719Y-152966D01*
G37*
G54D44*
X412719Y-157531D02*
X412719Y-207138D01*
G54D19*
X75188Y-206209D02*
X86916Y-191197D01*
X86916Y-105075D01*
G54D45*
X394969Y-77156D02*
X370931Y-83981D01*
X360612Y-94300D01*
X360612Y-122875D01*
X331244Y-165738D01*
X185591Y-165738D01*
X124681Y-228044D01*
X413700Y-145088D02*
G54D16*
D03*
G54D19*
X488125Y-161500D02*
X488919Y-202378D01*
X489712Y-259925D01*
X484156Y-299612D01*
X399225Y-317075D01*
G54D46*
X342503Y-311147D02*
X391934Y-311109D01*
G54D19*
X103981Y-245269D02*
X86300Y-237384D01*
X85694Y-262359D01*
G54D47*
X261144Y-285750D02*
X266700Y-290909D01*
X261144Y-290512D01*
G54D19*
X214281Y-46838D02*
X201978Y-25112D01*
G54D48*
X11588Y-143581D02*
X11588Y-168581D01*
G54D49*
X161894Y-262359D02*
X144828Y-284608D01*
X136167Y-287316D01*
G54D36*
X378588Y-209262D02*
X378588Y-250538D01*
X379381Y-262841D01*
X379381Y-294194D01*
X193247Y-294988D01*
G54D50*
X11826Y-94884D02*
X11826Y-98884D01*
X7659Y-98884D01*
X5993Y-97884D01*
X5159Y-95884D01*
X5159Y-93884D01*
X5993Y-91884D01*
X7659Y-90884D01*
X15993Y-90884D01*
X17659Y-91884D01*
X18493Y-93884D01*
X18493Y-95884D01*
X17659Y-97884D01*
X15993Y-98884D01*
G54D50*
X5159Y-102551D02*
X18493Y-102551D01*
X18493Y-107551D01*
X17659Y-109551D01*
X15993Y-110551D01*
X14326Y-110551D01*
X12659Y-109551D01*
X11826Y-107551D01*
X11826Y-102551D01*
G54D50*
X15993Y-126085D02*
X7659Y-126085D01*
X5993Y-125085D01*
X5159Y-123085D01*
X5159Y-121085D01*
X5993Y-119085D01*
X7659Y-118085D01*
X15993Y-118085D01*
X17659Y-119085D01*
X18493Y-121085D01*
X18493Y-123085D01*
X17659Y-125085D01*
X15993Y-126085D01*
G54D51*
X153349Y-320946D02*
X156282Y-320946D01*
X156282Y-324001D01*
X155549Y-325223D01*
X154082Y-325834D01*
X152616Y-325834D01*
X151149Y-325223D01*
X150416Y-324001D01*
X150416Y-317890D01*
X151149Y-316668D01*
X152616Y-316057D01*
X154082Y-316057D01*
X155549Y-316668D01*
X156282Y-317890D01*
G54D51*
X158972Y-325834D02*
X158972Y-316057D01*
X162638Y-316057D01*
X164105Y-316668D01*
X164838Y-317890D01*
X164838Y-319112D01*
X164105Y-320334D01*
X162638Y-320946D01*
X158972Y-320946D01*
G54D51*
X167528Y-325834D02*
X167528Y-316057D01*
G54D51*
X176083Y-317890D02*
X176083Y-324001D01*
X175350Y-325223D01*
X173883Y-325834D01*
X172417Y-325834D01*
X170950Y-325223D01*
X170217Y-324001D01*
X170217Y-317890D01*
X170950Y-316668D01*
X172417Y-316057D01*
X173883Y-316057D01*
X175350Y-316668D01*
X176083Y-317890D01*
G54D51*
X178773Y-317890D02*
X179506Y-316668D01*
X180973Y-316057D01*
X182439Y-316057D01*
X183906Y-316668D01*
X184639Y-317890D01*
X184639Y-319112D01*
X183906Y-320334D01*
X182439Y-320946D01*
X183906Y-321557D01*
X184639Y-322779D01*
X184639Y-324001D01*
X183906Y-325223D01*
X182439Y-325834D01*
X180973Y-325834D01*
X179506Y-325223D01*
X178773Y-324001D01*
G54D35*
X209612Y-277256D02*
X209612Y-294022D01*
X209550Y-294084D01*
G54D36*
X186103Y-256094D02*
X185738Y-274241D01*
X197509Y-290847D01*
G36*
X176030Y-221986D02*
X192030Y-221985D01*
X192031Y-237985D01*
X176031Y-237986D01*
X176030Y-221986D01*
G37*
G36*
X176824Y-252148D02*
X192824Y-252147D01*
X192825Y-268147D01*
X176825Y-268148D01*
X176824Y-252148D01*
G37*
G54D47*
X255984Y-287734D02*
X255984Y-295672D01*
G36*
X113681Y-223479D02*
X120116Y-217044D01*
X129246Y-217044D01*
X135681Y-223479D01*
X135681Y-232609D01*
X129246Y-239044D01*
X120116Y-239044D01*
X113681Y-232609D01*
X113681Y-223479D01*
G37*
G36*
X145828Y-223876D02*
X152263Y-217441D01*
X161393Y-217441D01*
X167828Y-223876D01*
X167828Y-233006D01*
X161393Y-239441D01*
X152263Y-239441D01*
X145828Y-233006D01*
X145828Y-223876D01*
G37*
G54D52*
X156828Y-228441D02*
X182486Y-228441D01*
X184031Y-229985D01*
M02*
