%FSLAX34Y34*%
%MOMM*%
%LNCOPPER_BOTTOM*%
G71*
G01*
%ADD10C, 0.00*%
%ADD11C, 0.20*%
%ADD12C, 0.15*%
%ADD13C, 0.17*%
%ADD14C, 0.16*%
%ADD15C, 0.13*%
%ADD16C, 0.14*%
%ADD17C, 0.24*%
%ADD18C, 0.26*%
%ADD19C, 0.17*%
%ADD20C, 0.12*%
%ADD21C, 0.33*%
%ADD22C, 0.22*%
%ADD23C, 0.50*%
%ADD24C, 0.24*%
%LPD*%
G54D10*
X0Y0D02*
X700000Y0D01*
X700000Y-700000D01*
X0Y-700000D01*
X0Y0D01*
G54D11*
X201978Y-12412D02*
X195578Y-12412D01*
X189278Y-18712D01*
X189278Y-31512D01*
X195578Y-37812D01*
X208378Y-37812D01*
X214678Y-31512D01*
X214678Y-18712D01*
X208378Y-12412D01*
X201978Y-12412D01*
G54D11*
X227378Y-12412D02*
X220978Y-12412D01*
X214678Y-18712D01*
X214678Y-31512D01*
X220978Y-37812D01*
X233778Y-37812D01*
X240078Y-31512D01*
X240078Y-18712D01*
X233778Y-12412D01*
X227378Y-12412D01*
G54D11*
X302078Y-12481D02*
X295678Y-12481D01*
X289378Y-18781D01*
X289378Y-31581D01*
X295678Y-37881D01*
X308478Y-37881D01*
X314778Y-31581D01*
X314778Y-18781D01*
X308478Y-12481D01*
X302078Y-12481D01*
G54D11*
X412719Y-169438D02*
X406319Y-169438D01*
X400019Y-175738D01*
X400019Y-188538D01*
X406319Y-194838D01*
X419119Y-194838D01*
X425419Y-188538D01*
X425419Y-175738D01*
X419119Y-169438D01*
X412719Y-169438D01*
G54D11*
X167053Y-23525D02*
X160653Y-23525D01*
X154353Y-29825D01*
X154353Y-42625D01*
X160653Y-48925D01*
X173453Y-48925D01*
X179753Y-42625D01*
X179753Y-29825D01*
X173453Y-23525D01*
X167053Y-23525D01*
G54D11*
X117047Y-25112D02*
X110647Y-25112D01*
X104347Y-31412D01*
X104347Y-44212D01*
X110647Y-50512D01*
X123447Y-50512D01*
X129747Y-44212D01*
X129747Y-31412D01*
X123447Y-25112D01*
X117047Y-25112D01*
G54D11*
X251984Y-12412D02*
X245584Y-12412D01*
X239284Y-18712D01*
X239284Y-31512D01*
X245584Y-37812D01*
X258384Y-37812D01*
X264684Y-31512D01*
X264684Y-18712D01*
X258384Y-12412D01*
X251984Y-12412D01*
G54D11*
X277384Y-12412D02*
X270984Y-12412D01*
X264684Y-18712D01*
X264684Y-31512D01*
X270984Y-37812D01*
X283784Y-37812D01*
X290084Y-31512D01*
X290084Y-18712D01*
X283784Y-12412D01*
X277384Y-12412D01*
G54D11*
X110775Y-112194D02*
X104375Y-112194D01*
X98075Y-118494D01*
X98075Y-131294D01*
X104375Y-137594D01*
X117175Y-137594D01*
X123475Y-131294D01*
X123475Y-118494D01*
X117175Y-112194D01*
X110775Y-112194D01*
G54D11*
X412719Y-194438D02*
X406319Y-194438D01*
X400019Y-200738D01*
X400019Y-213538D01*
X406319Y-219838D01*
X419119Y-219838D01*
X425419Y-213538D01*
X425419Y-200738D01*
X419119Y-194438D01*
X412719Y-194438D01*
G54D11*
X110775Y-137594D02*
X104375Y-137594D01*
X98075Y-143894D01*
X98075Y-156694D01*
X104375Y-162994D01*
X117175Y-162994D01*
X123475Y-156694D01*
X123475Y-143894D01*
X117175Y-137594D01*
X110775Y-137594D01*
G54D11*
X110775Y-162994D02*
X104375Y-162994D01*
X98075Y-169294D01*
X98075Y-182094D01*
X104375Y-188394D01*
X117175Y-188394D01*
X123475Y-182094D01*
X123475Y-169294D01*
X117175Y-162994D01*
X110775Y-162994D01*
G54D11*
X209612Y-264556D02*
X203212Y-264556D01*
X196912Y-270856D01*
X196912Y-283656D01*
X203212Y-289956D01*
X216012Y-289956D01*
X222312Y-283656D01*
X222312Y-270856D01*
X216012Y-264556D01*
X209612Y-264556D01*
G54D12*
X75300Y-246003D02*
X97300Y-246003D01*
X97300Y-196003D01*
X75300Y-196003D01*
X75300Y-246003D01*
G54D12*
X272838Y-257512D02*
X250838Y-257512D01*
X250838Y-307512D01*
X272838Y-307512D01*
X272838Y-257512D01*
G54D12*
X371006Y-37472D02*
X371006Y-15472D01*
X321006Y-15472D01*
X321006Y-37472D01*
X371006Y-37472D01*
G54D12*
X19628Y-255644D02*
X19628Y-277644D01*
X69628Y-277644D01*
X69628Y-255644D01*
X19628Y-255644D01*
G54D13*
X8925Y-297215D02*
X11925Y-298881D01*
X12925Y-300548D01*
X12925Y-303881D01*
G54D13*
X4925Y-303881D02*
X4925Y-290548D01*
X9925Y-290548D01*
X11925Y-291381D01*
X12925Y-293048D01*
X12925Y-294715D01*
X11925Y-296381D01*
X9925Y-297215D01*
X4925Y-297215D01*
G54D13*
X16625Y-295548D02*
X21625Y-290548D01*
X21625Y-303881D01*
G54D14*
X56427Y-238768D02*
X59227Y-240324D01*
X60160Y-241880D01*
X60160Y-244991D01*
G54D14*
X52694Y-244991D02*
X52694Y-232546D01*
X57360Y-232546D01*
X59227Y-233324D01*
X60160Y-234880D01*
X60160Y-236435D01*
X59227Y-237991D01*
X57360Y-238768D01*
X52694Y-238768D01*
G54D14*
X71060Y-244991D02*
X63594Y-244991D01*
X63594Y-244213D01*
X64527Y-242657D01*
X70127Y-237991D01*
X71060Y-236435D01*
X71060Y-234880D01*
X70127Y-233324D01*
X68260Y-232546D01*
X66394Y-232546D01*
X64527Y-233324D01*
X63594Y-234880D01*
G54D15*
X284172Y-284845D02*
X286572Y-286178D01*
X287372Y-287511D01*
X287372Y-290178D01*
G54D15*
X280972Y-290178D02*
X280972Y-279511D01*
X284972Y-279511D01*
X286572Y-280178D01*
X287372Y-281511D01*
X287372Y-282845D01*
X286572Y-284178D01*
X284972Y-284845D01*
X280972Y-284845D01*
G54D15*
X290272Y-281511D02*
X291072Y-280178D01*
X292672Y-279511D01*
X294272Y-279511D01*
X295872Y-280178D01*
X296672Y-281511D01*
X296672Y-282845D01*
X295872Y-284178D01*
X294272Y-284845D01*
X295872Y-285511D01*
X296672Y-286845D01*
X296672Y-288178D01*
X295872Y-289511D01*
X294272Y-290178D01*
X292672Y-290178D01*
X291072Y-289511D01*
X290272Y-288178D01*
G54D13*
X381938Y-37715D02*
X384938Y-39381D01*
X385938Y-41048D01*
X385938Y-44381D01*
G54D13*
X377938Y-44381D02*
X377938Y-31048D01*
X382938Y-31048D01*
X384938Y-31881D01*
X385938Y-33548D01*
X385938Y-35215D01*
X384938Y-36881D01*
X382938Y-37715D01*
X377938Y-37715D01*
G54D13*
X395638Y-44381D02*
X395638Y-31048D01*
X389638Y-39381D01*
X389638Y-41048D01*
X397638Y-41048D01*
G54D16*
X417821Y-60865D02*
X416954Y-62309D01*
X415221Y-63031D01*
X413488Y-63031D01*
X411754Y-62309D01*
X410888Y-60865D01*
X410888Y-53642D01*
X411754Y-52198D01*
X413488Y-51476D01*
X415221Y-51476D01*
X416954Y-52198D01*
X417821Y-53642D01*
G54D16*
X420988Y-55809D02*
X425321Y-51476D01*
X425321Y-63031D01*
G54D11*
X76062Y-403535D02*
X76062Y-397135D01*
X69762Y-390835D01*
X56962Y-390835D01*
X50662Y-397135D01*
X50662Y-409935D01*
X56962Y-416235D01*
X69762Y-416235D01*
X76062Y-409935D01*
X76062Y-403535D01*
G54D11*
X75268Y-377342D02*
X75268Y-370942D01*
X68968Y-364642D01*
X56168Y-364642D01*
X49868Y-370942D01*
X49868Y-383742D01*
X56168Y-390042D01*
X68968Y-390042D01*
X75268Y-383742D01*
X75268Y-377342D01*
G54D11*
X75268Y-327335D02*
X75268Y-320935D01*
X68968Y-314635D01*
X56168Y-314635D01*
X49868Y-320935D01*
X49868Y-333735D01*
X56168Y-340035D01*
X68968Y-340035D01*
X75268Y-333735D01*
X75268Y-327335D01*
G54D11*
X75268Y-302729D02*
X75268Y-296329D01*
X68968Y-290029D01*
X56168Y-290029D01*
X49868Y-296329D01*
X49868Y-309129D01*
X56168Y-315429D01*
X68968Y-315429D01*
X75268Y-309129D01*
X75268Y-302729D01*
G54D11*
X61881Y-194181D02*
X55481Y-194181D01*
X49181Y-200481D01*
X49181Y-213281D01*
X55481Y-219581D01*
X68281Y-219581D01*
X74581Y-213281D01*
X74581Y-200481D01*
X68281Y-194181D01*
X61881Y-194181D01*
G54D11*
X61881Y-168781D02*
X55481Y-168781D01*
X49181Y-175081D01*
X49181Y-187881D01*
X55481Y-194181D01*
X68281Y-194181D01*
X74581Y-187881D01*
X74581Y-175081D01*
X68281Y-168781D01*
X61881Y-168781D01*
G54D11*
X62675Y-117981D02*
X56275Y-117981D01*
X49975Y-124281D01*
X49975Y-137081D01*
X56275Y-143381D01*
X69075Y-143381D01*
X75375Y-137081D01*
X75375Y-124281D01*
X69075Y-117981D01*
X62675Y-117981D01*
G54D11*
X62675Y-92581D02*
X56275Y-92581D01*
X49975Y-98881D01*
X49975Y-111681D01*
X56275Y-117981D01*
X69075Y-117981D01*
X75375Y-111681D01*
X75375Y-98881D01*
X69075Y-92581D01*
X62675Y-92581D01*
G54D17*
X446453Y-204403D02*
X435786Y-204403D01*
X435786Y-210236D01*
X437120Y-210236D01*
X439786Y-209403D01*
X442453Y-209403D01*
X445120Y-210236D01*
X446453Y-211903D01*
X446453Y-215236D01*
X445120Y-216903D01*
X442453Y-217736D01*
X439786Y-217736D01*
X437120Y-216903D01*
X435786Y-215236D01*
G54D17*
X451186Y-204403D02*
X457853Y-217736D01*
X464520Y-204403D01*
G54D11*
X412719Y-144831D02*
X406319Y-144831D01*
X400019Y-151131D01*
X400019Y-163931D01*
X406319Y-170231D01*
X419119Y-170231D01*
X425419Y-163931D01*
X425419Y-151131D01*
X419119Y-144831D01*
X412719Y-144831D01*
G54D18*
X390493Y-27434D02*
X383338Y-27434D01*
X383338Y-6990D01*
X390493Y-6990D01*
G54D18*
X383338Y-17212D02*
X390493Y-17212D01*
G54D18*
X396138Y-23601D02*
X397160Y-26157D01*
X399204Y-27434D01*
X401249Y-27434D01*
X403293Y-26157D01*
X404315Y-23601D01*
X404315Y-21046D01*
X403293Y-18490D01*
X401249Y-17212D01*
X399204Y-17212D01*
X397160Y-15934D01*
X396138Y-13379D01*
X396138Y-10823D01*
X397160Y-8268D01*
X399204Y-6990D01*
X401249Y-6990D01*
X403293Y-8268D01*
X404315Y-10823D01*
G54D18*
X409938Y-27434D02*
X409938Y-6990D01*
X415049Y-6990D01*
X417093Y-8268D01*
X418115Y-10823D01*
X418115Y-13379D01*
X417093Y-15934D01*
X415049Y-17212D01*
X409938Y-17212D01*
G54D18*
X423738Y-27434D02*
X423738Y-6990D01*
X428849Y-6990D01*
X430893Y-8268D01*
X431915Y-10823D01*
X431915Y-13379D01*
X430893Y-15934D01*
X428849Y-17212D01*
X423738Y-17212D01*
G54D18*
X445715Y-10823D02*
X445715Y-23601D01*
X444693Y-26157D01*
X442649Y-27434D01*
X440604Y-27434D01*
X438560Y-26157D01*
X437538Y-23601D01*
X437538Y-10823D01*
X438560Y-8268D01*
X440604Y-6990D01*
X442649Y-6990D01*
X444693Y-8268D01*
X445715Y-10823D01*
G54D18*
X451338Y-6990D02*
X451338Y-27434D01*
X456449Y-14657D01*
X461560Y-27434D01*
X461560Y-6990D01*
G54D18*
X474293Y-27434D02*
X467138Y-27434D01*
X467138Y-6990D01*
X474293Y-6990D01*
G54D18*
X467138Y-17212D02*
X474293Y-17212D01*
G54D18*
X484026Y-17212D02*
X487093Y-19768D01*
X488115Y-22323D01*
X488115Y-27434D01*
G54D18*
X479938Y-27434D02*
X479938Y-6990D01*
X485049Y-6990D01*
X487093Y-8268D01*
X488115Y-10823D01*
X488115Y-13379D01*
X487093Y-15934D01*
X485049Y-17212D01*
X479938Y-17212D01*
G54D19*
X187570Y-290573D02*
X189237Y-287573D01*
X190904Y-286573D01*
X194237Y-286573D01*
G54D19*
X194237Y-294573D02*
X180904Y-294573D01*
X180904Y-289573D01*
X181737Y-287573D01*
X183404Y-286573D01*
X185070Y-286573D01*
X186737Y-287573D01*
X187570Y-289573D01*
X187570Y-294573D01*
G54D19*
X180904Y-274906D02*
X180904Y-282906D01*
X186737Y-282906D01*
X186737Y-281906D01*
X185904Y-279906D01*
X185904Y-277906D01*
X186737Y-275906D01*
X188404Y-274906D01*
X191737Y-274906D01*
X193404Y-275906D01*
X194237Y-277906D01*
X194237Y-279906D01*
X193404Y-281906D01*
X191737Y-282906D01*
G54D12*
X195006Y-220429D02*
X173006Y-220429D01*
X173006Y-270429D01*
X195006Y-270429D01*
X195006Y-220429D01*
G54D11*
X124681Y-215344D02*
X118281Y-215344D01*
X111981Y-221644D01*
X111981Y-234444D01*
X118281Y-240744D01*
X131081Y-240744D01*
X137381Y-234444D01*
X137381Y-221644D01*
X131081Y-215344D01*
X124681Y-215344D01*
G54D11*
X156828Y-215741D02*
X150428Y-215741D01*
X144128Y-222041D01*
X144128Y-234841D01*
X150428Y-241141D01*
X163228Y-241141D01*
X169528Y-234841D01*
X169528Y-222041D01*
X163228Y-215741D01*
X156828Y-215741D01*
G54D11*
X370259Y-51113D02*
X370259Y-211113D01*
X130259Y-211113D01*
X130259Y-51113D01*
X370259Y-51113D01*
G54D20*
X50955Y-351108D02*
X53889Y-351108D01*
X53889Y-354164D01*
X53155Y-355386D01*
X51689Y-355997D01*
X50222Y-355997D01*
X48755Y-355386D01*
X48022Y-354164D01*
X48022Y-348052D01*
X48755Y-346830D01*
X50222Y-346219D01*
X51689Y-346219D01*
X53155Y-346830D01*
X53889Y-348052D01*
G54D20*
X56578Y-355997D02*
X56578Y-346219D01*
X60245Y-346219D01*
X61711Y-346830D01*
X62445Y-348052D01*
X62445Y-349275D01*
X61711Y-350497D01*
X60245Y-351108D01*
X56578Y-351108D01*
G54D20*
X65134Y-355997D02*
X65134Y-346219D01*
G54D20*
X73690Y-348052D02*
X73690Y-354164D01*
X72956Y-355386D01*
X71490Y-355997D01*
X70023Y-355997D01*
X68556Y-355386D01*
X67823Y-354164D01*
X67823Y-348052D01*
X68556Y-346830D01*
X70023Y-346219D01*
X71490Y-346219D01*
X72956Y-346830D01*
X73690Y-348052D01*
G54D20*
X76379Y-348052D02*
X77112Y-346830D01*
X78579Y-346219D01*
X80046Y-346219D01*
X81512Y-346830D01*
X82246Y-348052D01*
X82246Y-349275D01*
X81512Y-350497D01*
X80046Y-351108D01*
X81512Y-351719D01*
X82246Y-352941D01*
X82246Y-354164D01*
X81512Y-355386D01*
X80046Y-355997D01*
X78579Y-355997D01*
X77112Y-355386D01*
X76379Y-354164D01*
G54D21*
X17747Y-8555D02*
X27080Y-27222D01*
X36414Y-8555D01*
G54D21*
X57880Y-27222D02*
X42947Y-27222D01*
X42947Y-26055D01*
X44814Y-23722D01*
X56014Y-16722D01*
X57880Y-14389D01*
X57880Y-12055D01*
X56014Y-9722D01*
X52280Y-8555D01*
X48547Y-8555D01*
X44814Y-9722D01*
X42947Y-12055D01*
G54D21*
X64413Y-27222D02*
X64413Y-27222D01*
G54D21*
X85879Y-12055D02*
X85879Y-23722D01*
X84013Y-26055D01*
X80279Y-27222D01*
X76546Y-27222D01*
X72813Y-26055D01*
X70946Y-23722D01*
X70946Y-12055D01*
X72813Y-9722D01*
X76546Y-8555D01*
X80279Y-8555D01*
X84013Y-9722D01*
X85879Y-12055D01*
G54D21*
X107345Y-27222D02*
X92412Y-27222D01*
X92412Y-26055D01*
X94279Y-23722D01*
X105479Y-16722D01*
X107345Y-14389D01*
X107345Y-12055D01*
X105479Y-9722D01*
X101745Y-8555D01*
X98012Y-8555D01*
X94279Y-9722D01*
X92412Y-12055D01*
G54D11*
X347266Y-443706D02*
X347266Y-621506D01*
X194866Y-621506D01*
X194866Y-443706D01*
X347266Y-443706D01*
G54D11*
X185738Y-443706D02*
X185737Y-621506D01*
X33338Y-621506D01*
X33337Y-443706D01*
X185738Y-443706D01*
G54D11*
X679847Y-444103D02*
X679847Y-621903D01*
X527447Y-621903D01*
X527447Y-444103D01*
X679847Y-444103D01*
G54D11*
X516731Y-443706D02*
X516731Y-621506D01*
X364331Y-621506D01*
X364331Y-443706D01*
X516731Y-443706D01*
G54D22*
X136730Y-393303D02*
X127397Y-393303D01*
X127397Y-375525D01*
X136730Y-375525D01*
G54D22*
X127397Y-384414D02*
X136730Y-384414D01*
G54D22*
X141619Y-393303D02*
X141619Y-375525D01*
X148286Y-375525D01*
X150952Y-376636D01*
X152286Y-378859D01*
X152286Y-381081D01*
X150952Y-383303D01*
X148286Y-384414D01*
X150952Y-385525D01*
X152286Y-387748D01*
X152286Y-389970D01*
X150952Y-392192D01*
X148286Y-393303D01*
X141619Y-393303D01*
G54D22*
X141619Y-384414D02*
X148286Y-384414D01*
G54D22*
X167842Y-389970D02*
X166508Y-392192D01*
X163842Y-393303D01*
X161175Y-393303D01*
X158508Y-392192D01*
X157175Y-389970D01*
X157175Y-378859D01*
X158508Y-376636D01*
X161175Y-375525D01*
X163842Y-375525D01*
X166508Y-376636D01*
X167842Y-378859D01*
G54D12*
X186781Y-334613D02*
X186781Y-312613D01*
X136781Y-312613D01*
X136781Y-334613D01*
X186781Y-334613D01*
G54D12*
X263268Y-331554D02*
X241268Y-331554D01*
X241268Y-381554D01*
X263268Y-381554D01*
X263268Y-331554D01*
G54D12*
X343525Y-297259D02*
X321525Y-297259D01*
X321525Y-347259D01*
X343525Y-347259D01*
X343525Y-297259D01*
G54D12*
X389078Y-297820D02*
X367078Y-297820D01*
X367078Y-347820D01*
X389078Y-347820D01*
X389078Y-297820D01*
G54D20*
X126758Y-303086D02*
X128958Y-304308D01*
X129692Y-305531D01*
X129692Y-307975D01*
G54D20*
X123825Y-307975D02*
X123825Y-298197D01*
X127492Y-298197D01*
X128958Y-298808D01*
X129692Y-300031D01*
X129692Y-301253D01*
X128958Y-302475D01*
X127492Y-303086D01*
X123825Y-303086D01*
G54D20*
X138248Y-300031D02*
X137514Y-298808D01*
X136048Y-298197D01*
X134581Y-298197D01*
X133114Y-298808D01*
X132381Y-300031D01*
X132381Y-303086D01*
X132381Y-303697D01*
X134581Y-302475D01*
X136048Y-302475D01*
X137514Y-303086D01*
X138248Y-304308D01*
X138248Y-306142D01*
X137514Y-307364D01*
X136048Y-307975D01*
X134581Y-307975D01*
X133114Y-307364D01*
X132381Y-306142D01*
X132381Y-303086D01*
G54D20*
X149640Y-307975D02*
X143773Y-307975D01*
X143773Y-307364D01*
X144506Y-306142D01*
X148906Y-302475D01*
X149640Y-301253D01*
X149640Y-300031D01*
X148906Y-298808D01*
X147440Y-298197D01*
X145973Y-298197D01*
X144506Y-298808D01*
X143773Y-300031D01*
G54D20*
X152329Y-307975D02*
X152329Y-307975D01*
G54D20*
X160885Y-307975D02*
X155018Y-307975D01*
X155018Y-307364D01*
X155751Y-306142D01*
X160151Y-302475D01*
X160885Y-301253D01*
X160885Y-300031D01*
X160151Y-298808D01*
X158685Y-298197D01*
X157218Y-298197D01*
X155751Y-298808D01*
X155018Y-300031D01*
G54D20*
X163574Y-307975D02*
X163574Y-298197D01*
G54D20*
X163574Y-304919D02*
X169441Y-298197D01*
G54D20*
X165774Y-303086D02*
X169441Y-307975D01*
G54D11*
X234616Y-264556D02*
X228216Y-264556D01*
X221916Y-270856D01*
X221916Y-283656D01*
X228216Y-289956D01*
X241016Y-289956D01*
X247316Y-283656D01*
X247316Y-270856D01*
X241016Y-264556D01*
X234616Y-264556D01*
G54D11*
X413512Y-269843D02*
X419912Y-269843D01*
X426212Y-263543D01*
X426212Y-250743D01*
X419912Y-244443D01*
X407112Y-244443D01*
X400812Y-250743D01*
X400812Y-263543D01*
X407112Y-269843D01*
X413512Y-269843D01*
G54D11*
X413512Y-244843D02*
X419912Y-244843D01*
X426212Y-238543D01*
X426212Y-225743D01*
X419912Y-219443D01*
X407112Y-219443D01*
X400812Y-225743D01*
X400812Y-238543D01*
X407112Y-244843D01*
X413512Y-244843D01*
G54D11*
X413512Y-294450D02*
X419912Y-294450D01*
X426212Y-288150D01*
X426212Y-275350D01*
X419912Y-269050D01*
X407112Y-269050D01*
X400812Y-275350D01*
X400812Y-288150D01*
X407112Y-294450D01*
X413512Y-294450D01*
G54D23*
X496081Y-413034D02*
X696081Y-413034D01*
X696081Y-63034D01*
X496081Y-63034D01*
X496081Y-413034D01*
G54D19*
X554628Y-150768D02*
X557628Y-152434D01*
X558628Y-154101D01*
X558628Y-157434D01*
G54D19*
X550628Y-157434D02*
X550628Y-144101D01*
X555628Y-144101D01*
X557628Y-144934D01*
X558628Y-146601D01*
X558628Y-148268D01*
X557628Y-149934D01*
X555628Y-150768D01*
X550628Y-150768D01*
G54D19*
X562295Y-149101D02*
X567295Y-144101D01*
X567295Y-157434D01*
G54D19*
X588563Y-157434D02*
X588563Y-144101D01*
X582563Y-152434D01*
X582563Y-154101D01*
X590563Y-154101D01*
G54D19*
X594230Y-157434D02*
X594230Y-144101D01*
G54D19*
X594230Y-153268D02*
X602230Y-144101D01*
G54D19*
X597230Y-150768D02*
X602230Y-157434D01*
G54D19*
X605897Y-144101D02*
X613897Y-144101D01*
X612897Y-145768D01*
X610897Y-148268D01*
X608897Y-151601D01*
X607897Y-154101D01*
X607897Y-157434D01*
G54D19*
X554628Y-178152D02*
X557628Y-179819D01*
X558628Y-181485D01*
X558628Y-184819D01*
G54D19*
X550628Y-184819D02*
X550628Y-171485D01*
X555628Y-171485D01*
X557628Y-172319D01*
X558628Y-173985D01*
X558628Y-175652D01*
X557628Y-177319D01*
X555628Y-178152D01*
X550628Y-178152D01*
G54D19*
X570295Y-184819D02*
X562295Y-184819D01*
X562295Y-183985D01*
X563295Y-182319D01*
X569295Y-177319D01*
X570295Y-175652D01*
X570295Y-173985D01*
X569295Y-172319D01*
X567295Y-171485D01*
X565295Y-171485D01*
X563295Y-172319D01*
X562295Y-173985D01*
G54D19*
X591563Y-184819D02*
X591563Y-171485D01*
X585563Y-179819D01*
X585563Y-181485D01*
X593563Y-181485D01*
G54D19*
X597230Y-184819D02*
X597230Y-171485D01*
G54D19*
X597230Y-180652D02*
X605230Y-171485D01*
G54D19*
X600230Y-178152D02*
X605230Y-184819D01*
G54D19*
X608897Y-171485D02*
X616897Y-171485D01*
X615897Y-173152D01*
X613897Y-175652D01*
X611897Y-178985D01*
X610897Y-181485D01*
X610897Y-184819D01*
G54D19*
X554628Y-208315D02*
X557628Y-209981D01*
X558628Y-211648D01*
X558628Y-214981D01*
G54D19*
X550628Y-214981D02*
X550628Y-201648D01*
X555628Y-201648D01*
X557628Y-202481D01*
X558628Y-204148D01*
X558628Y-205815D01*
X557628Y-207481D01*
X555628Y-208315D01*
X550628Y-208315D01*
G54D19*
X562295Y-204148D02*
X563295Y-202481D01*
X565295Y-201648D01*
X567295Y-201648D01*
X569295Y-202481D01*
X570295Y-204148D01*
X570295Y-205815D01*
X569295Y-207481D01*
X567295Y-208315D01*
X569295Y-209148D01*
X570295Y-210815D01*
X570295Y-212481D01*
X569295Y-214148D01*
X567295Y-214981D01*
X565295Y-214981D01*
X563295Y-214148D01*
X562295Y-212481D01*
G54D19*
X585563Y-206648D02*
X590563Y-201648D01*
X590563Y-214981D01*
G54D19*
X602230Y-204148D02*
X602230Y-212481D01*
X601230Y-214148D01*
X599230Y-214981D01*
X597230Y-214981D01*
X595230Y-214148D01*
X594230Y-212481D01*
X594230Y-204148D01*
X595230Y-202481D01*
X597230Y-201648D01*
X599230Y-201648D01*
X601230Y-202481D01*
X602230Y-204148D01*
G54D19*
X605897Y-214981D02*
X605897Y-201648D01*
G54D19*
X605897Y-210815D02*
X613897Y-201648D01*
G54D19*
X608897Y-208315D02*
X613897Y-214981D01*
G54D19*
X537562Y-294833D02*
X540562Y-296500D01*
X541562Y-298167D01*
X541562Y-301500D01*
G54D19*
X533562Y-301500D02*
X533562Y-288167D01*
X538562Y-288167D01*
X540562Y-289000D01*
X541562Y-290667D01*
X541562Y-292333D01*
X540562Y-294000D01*
X538562Y-294833D01*
X533562Y-294833D01*
G54D19*
X553230Y-290667D02*
X552230Y-289000D01*
X550230Y-288167D01*
X548230Y-288167D01*
X546230Y-289000D01*
X545230Y-290667D01*
X545230Y-294833D01*
X545230Y-295667D01*
X548230Y-294000D01*
X550230Y-294000D01*
X552230Y-294833D01*
X553230Y-296500D01*
X553230Y-299000D01*
X552230Y-300667D01*
X550230Y-301500D01*
X548230Y-301500D01*
X546230Y-300667D01*
X545230Y-299000D01*
X545230Y-294833D01*
G54D19*
X560764Y-295667D02*
X568764Y-295667D01*
G54D19*
X580298Y-294833D02*
X583298Y-296500D01*
X584298Y-298167D01*
X584298Y-301500D01*
G54D19*
X576298Y-301500D02*
X576298Y-288167D01*
X581298Y-288167D01*
X583298Y-289000D01*
X584298Y-290667D01*
X584298Y-292333D01*
X583298Y-294000D01*
X581298Y-294833D01*
X576298Y-294833D01*
G54D19*
X587964Y-299000D02*
X588964Y-300667D01*
X590964Y-301500D01*
X592964Y-301500D01*
X594964Y-300667D01*
X595964Y-299000D01*
X595964Y-294833D01*
X595964Y-294000D01*
X592964Y-295667D01*
X590964Y-295667D01*
X588964Y-294833D01*
X587964Y-293167D01*
X587964Y-290667D01*
X588964Y-289000D01*
X590964Y-288167D01*
X592964Y-288167D01*
X594964Y-289000D01*
X595964Y-290667D01*
X595964Y-294833D01*
G54D19*
X619232Y-301500D02*
X611232Y-301500D01*
X611232Y-300667D01*
X612232Y-299000D01*
X618232Y-294000D01*
X619232Y-292333D01*
X619232Y-290667D01*
X618232Y-289000D01*
X616232Y-288167D01*
X614232Y-288167D01*
X612232Y-289000D01*
X611232Y-290667D01*
G54D19*
X622900Y-301500D02*
X622900Y-301500D01*
G54D19*
X634566Y-301500D02*
X626566Y-301500D01*
X626566Y-300667D01*
X627566Y-299000D01*
X633566Y-294000D01*
X634566Y-292333D01*
X634566Y-290667D01*
X633566Y-289000D01*
X631566Y-288167D01*
X629566Y-288167D01*
X627566Y-289000D01*
X626566Y-290667D01*
G54D19*
X638234Y-301500D02*
X638234Y-288167D01*
G54D19*
X638234Y-297333D02*
X646234Y-288167D01*
G54D19*
X641234Y-294833D02*
X646234Y-301500D01*
G54D19*
X554628Y-237683D02*
X557628Y-239350D01*
X558628Y-241017D01*
X558628Y-244350D01*
G54D19*
X550628Y-244350D02*
X550628Y-231017D01*
X555628Y-231017D01*
X557628Y-231850D01*
X558628Y-233517D01*
X558628Y-235183D01*
X557628Y-236850D01*
X555628Y-237683D01*
X550628Y-237683D01*
G54D19*
X568295Y-244350D02*
X568295Y-231017D01*
X562295Y-239350D01*
X562295Y-241017D01*
X570295Y-241017D01*
G54D19*
X585563Y-236017D02*
X590563Y-231017D01*
X590563Y-244350D01*
G54D19*
X602230Y-233517D02*
X602230Y-241850D01*
X601230Y-243517D01*
X599230Y-244350D01*
X597230Y-244350D01*
X595230Y-243517D01*
X594230Y-241850D01*
X594230Y-233517D01*
X595230Y-231850D01*
X597230Y-231017D01*
X599230Y-231017D01*
X601230Y-231850D01*
X602230Y-233517D01*
G54D19*
X605897Y-244350D02*
X605897Y-231017D01*
G54D19*
X605897Y-240183D02*
X613897Y-231017D01*
G54D19*
X608897Y-237683D02*
X613897Y-244350D01*
G54D19*
X553834Y-267846D02*
X556834Y-269512D01*
X557834Y-271179D01*
X557834Y-274512D01*
G54D19*
X549834Y-274512D02*
X549834Y-261179D01*
X554834Y-261179D01*
X556834Y-262012D01*
X557834Y-263679D01*
X557834Y-265346D01*
X556834Y-267012D01*
X554834Y-267846D01*
X549834Y-267846D01*
G54D19*
X569501Y-261179D02*
X561501Y-261179D01*
X561501Y-267012D01*
X562501Y-267012D01*
X564501Y-266179D01*
X566501Y-266179D01*
X568501Y-267012D01*
X569501Y-268679D01*
X569501Y-272012D01*
X568501Y-273679D01*
X566501Y-274512D01*
X564501Y-274512D01*
X562501Y-273679D01*
X561501Y-272012D01*
G54D19*
X584769Y-266179D02*
X589769Y-261179D01*
X589769Y-274512D01*
G54D19*
X593436Y-274512D02*
X593436Y-261179D01*
G54D19*
X593436Y-270346D02*
X601436Y-261179D01*
G54D19*
X596436Y-267846D02*
X601436Y-274512D01*
G54D24*
X439929Y-232104D02*
X445262Y-232104D01*
X445262Y-236271D01*
X443929Y-237938D01*
X441262Y-238771D01*
X438596Y-238771D01*
X435929Y-237938D01*
X434596Y-236271D01*
X434596Y-227938D01*
X435929Y-226271D01*
X438596Y-225438D01*
X441262Y-225438D01*
X443929Y-226271D01*
X445262Y-227938D01*
G54D24*
X449930Y-238771D02*
X449930Y-225438D01*
X460596Y-238771D01*
X460596Y-225438D01*
G54D24*
X465264Y-238771D02*
X465264Y-225438D01*
X471930Y-225438D01*
X474597Y-226271D01*
X475930Y-227938D01*
X475930Y-236271D01*
X474597Y-237938D01*
X471930Y-238771D01*
X465264Y-238771D01*
G54D20*
X222405Y-373333D02*
X224605Y-374555D01*
X225339Y-375778D01*
X225339Y-378222D01*
G54D20*
X219472Y-378222D02*
X219472Y-368444D01*
X223139Y-368444D01*
X224605Y-369055D01*
X225339Y-370278D01*
X225339Y-371500D01*
X224605Y-372722D01*
X223139Y-373333D01*
X219472Y-373333D01*
G54D20*
X228028Y-368444D02*
X233895Y-368444D01*
X233161Y-369666D01*
X231695Y-371500D01*
X230228Y-373944D01*
X229495Y-375778D01*
X229495Y-378222D01*
G54D20*
X299399Y-319358D02*
X301599Y-320580D01*
X302332Y-321802D01*
X302332Y-324247D01*
G54D20*
X296466Y-324247D02*
X296466Y-314469D01*
X300132Y-314469D01*
X301599Y-315080D01*
X302332Y-316302D01*
X302332Y-317525D01*
X301599Y-318747D01*
X300132Y-319358D01*
X296466Y-319358D01*
G54D20*
X308688Y-319358D02*
X307222Y-319358D01*
X305755Y-318747D01*
X305022Y-317525D01*
X305022Y-316302D01*
X305755Y-315080D01*
X307222Y-314469D01*
X308688Y-314469D01*
X310155Y-315080D01*
X310888Y-316302D01*
X310888Y-317525D01*
X310155Y-318747D01*
X308688Y-319358D01*
X310155Y-319969D01*
X310888Y-321191D01*
X310888Y-322414D01*
X310155Y-323636D01*
X308688Y-324247D01*
X307222Y-324247D01*
X305755Y-323636D01*
X305022Y-322414D01*
X305022Y-321191D01*
X305755Y-319969D01*
X307222Y-319358D01*
G54D20*
X402983Y-320152D02*
X405183Y-321374D01*
X405917Y-322596D01*
X405917Y-325041D01*
G54D20*
X400050Y-325041D02*
X400050Y-315263D01*
X403717Y-315263D01*
X405183Y-315874D01*
X405917Y-317096D01*
X405917Y-318318D01*
X405183Y-319541D01*
X403717Y-320152D01*
X400050Y-320152D01*
G54D20*
X408606Y-323207D02*
X409339Y-324430D01*
X410806Y-325041D01*
X412273Y-325041D01*
X413739Y-324430D01*
X414473Y-323207D01*
X414473Y-320152D01*
X414473Y-319541D01*
X412273Y-320763D01*
X410806Y-320763D01*
X409339Y-320152D01*
X408606Y-318930D01*
X408606Y-317096D01*
X409339Y-315874D01*
X410806Y-315263D01*
X412273Y-315263D01*
X413739Y-315874D01*
X414473Y-317096D01*
X414473Y-320152D01*
M02*
