%FSLAX34Y34*%
%MOMM*%
%LNCOPPER_TOP*%
G71*
G01*
%ADD10C, 0.00*%
%ADD11R, 1.00X4.00*%
%ADD12R, 1.00X2.80*%
%ADD13R, 1.00X3.00*%
%ADD14R, 2.00X1.55*%
%ADD15R, 2.00X1.64*%
%ADD16R, 2.00X1.00*%
%ADD17R, 4.12X4.00*%
%ADD18C, 2.20*%
%ADD19C, 1.00*%
%ADD20R, 1.80X1.38*%
%ADD21C, 1.66*%
%ADD22C, 0.70*%
%ADD23C, 0.33*%
%ADD24C, 0.26*%
%ADD25C, 4.12*%
%ADD26C, 2.36*%
%ADD27C, 1.13*%
%ADD28C, 0.90*%
%ADD29C, 0.80*%
%ADD30C, 0.91*%
%ADD31R, 1.60X1.60*%
%ADD32R, 4.00X4.00*%
%ADD33R, 3.14X4.00*%
%ADD34C, 1.50*%
%ADD35C, 1.44*%
%ADD36C, 1.10*%
%ADD37C, 0.17*%
%ADD38C, 1.70*%
%ADD39C, 2.10*%
%ADD40C, 1.90*%
%ADD41C, 2.30*%
%ADD42C, 0.40*%
%ADD43R, 3.40X2.10*%
%ADD44R, 4.00X2.40*%
%ADD45C, 3.10*%
%ADD46C, 2.80*%
%ADD47C, 1.30*%
%ADD48C, 1.20*%
%ADD49C, 3.00*%
%LPD*%
G54D10*
X0Y0D02*
X700000Y0D01*
X700000Y-700000D01*
X0Y-700000D01*
X0Y0D01*
X355075Y-53525D02*
G54D11*
D03*
X355075Y-213525D02*
G54D11*
D03*
X335075Y-53525D02*
G54D11*
D03*
X335075Y-213525D02*
G54D11*
D03*
X315075Y-53525D02*
G54D12*
D03*
X315075Y-213525D02*
G54D11*
D03*
X295075Y-53525D02*
G54D11*
D03*
X295075Y-213525D02*
G54D11*
D03*
X275075Y-53525D02*
G54D11*
D03*
X275075Y-213525D02*
G54D11*
D03*
X255075Y-53525D02*
G54D11*
D03*
X255075Y-213525D02*
G54D11*
D03*
X235075Y-53525D02*
G54D11*
D03*
X235075Y-213525D02*
G54D11*
D03*
X215075Y-56700D02*
G54D13*
D03*
X412906Y-80794D02*
G54D14*
D03*
X412906Y-110162D02*
G54D15*
D03*
X413700Y-136356D02*
G54D16*
D03*
X467272Y-112916D02*
G54D17*
D03*
X201978Y-25112D02*
G54D18*
D03*
X227378Y-25112D02*
G54D18*
D03*
G54D19*
X234125Y-36519D02*
X227378Y-25112D01*
X395681Y-75506D02*
G54D20*
D03*
G54D21*
X117047Y-37812D02*
X113872Y-47234D01*
X114269Y-69619D01*
X302078Y-25181D02*
G54D18*
D03*
G36*
X23418Y-341085D02*
X23418Y-364385D01*
X118Y-364385D01*
X118Y-341085D01*
X23418Y-341085D01*
G37*
G36*
X67008Y-367435D02*
X73268Y-373695D01*
X73268Y-382575D01*
X67008Y-388835D01*
X58128Y-388835D01*
X51868Y-382575D01*
X51868Y-373695D01*
X58128Y-367435D01*
X67008Y-367435D01*
G37*
G36*
X67942Y-390585D02*
X75518Y-398161D01*
X75518Y-408909D01*
X67942Y-416485D01*
X57194Y-416485D01*
X49618Y-408909D01*
X49618Y-398161D01*
X57194Y-390585D01*
X67942Y-390585D01*
G37*
G36*
X67008Y-316635D02*
X73268Y-322895D01*
X73268Y-331775D01*
X67008Y-338035D01*
X58128Y-338035D01*
X51868Y-331775D01*
X51868Y-322895D01*
X58128Y-316635D01*
X67008Y-316635D01*
G37*
G36*
X75518Y-288985D02*
X75518Y-314885D01*
X49618Y-314885D01*
X49618Y-288985D01*
X75518Y-288985D01*
G37*
G36*
X401719Y-177572D02*
X408154Y-171138D01*
X417284Y-171138D01*
X423719Y-177572D01*
X423719Y-186702D01*
X417284Y-193138D01*
X408154Y-193138D01*
X401719Y-186702D01*
X401719Y-177572D01*
G37*
G54D19*
X60294Y-262359D02*
X58706Y-256094D01*
X63469Y-256094D01*
G36*
X156053Y-25225D02*
X178053Y-25225D01*
X178053Y-47225D01*
X156053Y-47225D01*
X156053Y-25225D01*
G37*
G36*
X106047Y-26812D02*
X128047Y-26812D01*
X128047Y-48812D01*
X106047Y-48812D01*
X106047Y-26812D01*
G37*
G54D19*
X275400Y-230694D02*
X282147Y-248156D01*
X282147Y-248553D01*
X280956Y-315944D01*
G54D19*
X295244Y-230694D02*
X301197Y-263634D01*
G54D19*
X315088Y-231488D02*
X322628Y-255697D01*
X333344Y-275144D01*
G54D19*
X335725Y-232281D02*
X346044Y-254903D01*
X378103Y-307376D01*
X251984Y-25112D02*
G54D18*
D03*
X277384Y-25112D02*
G54D18*
D03*
G54D19*
X296434Y-40591D02*
X302078Y-25181D01*
G54D19*
X276591Y-43369D02*
X277384Y-25112D01*
G54D19*
X253969Y-35431D02*
X251984Y-25112D01*
G36*
X224012Y-272691D02*
X230448Y-266256D01*
X239578Y-266256D01*
X246012Y-272691D01*
X246012Y-281821D01*
X239578Y-288256D01*
X230448Y-288256D01*
X224012Y-281821D01*
X224012Y-272691D01*
G37*
G36*
X74888Y-168981D02*
X74888Y-193981D01*
X49888Y-193981D01*
X49888Y-168981D01*
X74888Y-168981D01*
G37*
G36*
X74888Y-194381D02*
X74888Y-219381D01*
X49888Y-219381D01*
X49888Y-194381D01*
X74888Y-194381D01*
G37*
G36*
X74888Y-118181D02*
X74888Y-143181D01*
X49888Y-143181D01*
X49888Y-118181D01*
X74888Y-118181D01*
G37*
G36*
X74888Y-92781D02*
X74888Y-117781D01*
X49888Y-117781D01*
X49888Y-92781D01*
X74888Y-92781D01*
G37*
G54D19*
X362712Y-36088D02*
X384938Y-36881D01*
X394462Y-53550D01*
X406369Y-77362D01*
G54D19*
X356759Y-203569D02*
X381325Y-169438D01*
X388031Y-113081D01*
X408750Y-110700D01*
G54D22*
X62568Y-403535D02*
X39003Y-400691D01*
X38747Y-327800D01*
X37909Y-329516D01*
X31162Y-252522D01*
X31162Y-82262D01*
X92472Y-82153D01*
X112681Y-71944D01*
G36*
X380969Y-63156D02*
X408969Y-63156D01*
X408969Y-91156D01*
X380969Y-91156D01*
X380969Y-63156D01*
G37*
G36*
X383056Y-99375D02*
X410056Y-99375D01*
X410056Y-126375D01*
X383056Y-126375D01*
X383056Y-99375D01*
G37*
G54D23*
X14969Y-7365D02*
X24302Y-26031D01*
X33635Y-7365D01*
G54D23*
X55102Y-26031D02*
X40169Y-26031D01*
X40169Y-24865D01*
X42035Y-22531D01*
X53235Y-15531D01*
X55102Y-13198D01*
X55102Y-10865D01*
X53235Y-8531D01*
X49502Y-7365D01*
X45769Y-7365D01*
X42035Y-8531D01*
X40169Y-10865D01*
G54D23*
X61635Y-26031D02*
X61635Y-26031D01*
G54D23*
X83101Y-10865D02*
X83101Y-22531D01*
X81234Y-24865D01*
X77501Y-26031D01*
X73768Y-26031D01*
X70034Y-24865D01*
X68168Y-22531D01*
X68168Y-10865D01*
X70034Y-8531D01*
X73768Y-7365D01*
X77501Y-7365D01*
X81234Y-8531D01*
X83101Y-10865D01*
G54D23*
X104567Y-26031D02*
X89634Y-26031D01*
X89634Y-24865D01*
X91500Y-22531D01*
X102700Y-15531D01*
X104567Y-13198D01*
X104567Y-10865D01*
X102700Y-8531D01*
X98967Y-7365D01*
X95234Y-7365D01*
X91500Y-8531D01*
X89634Y-10865D01*
G54D24*
X390493Y-27831D02*
X383338Y-27831D01*
X383338Y-7387D01*
X390493Y-7387D01*
G54D24*
X383338Y-17609D02*
X390493Y-17609D01*
G54D24*
X396138Y-23998D02*
X397160Y-26553D01*
X399204Y-27831D01*
X401249Y-27831D01*
X403293Y-26553D01*
X404315Y-23998D01*
X404315Y-21442D01*
X403293Y-18887D01*
X401249Y-17609D01*
X399204Y-17609D01*
X397160Y-16331D01*
X396138Y-13776D01*
X396138Y-11220D01*
X397160Y-8665D01*
X399204Y-7387D01*
X401249Y-7387D01*
X403293Y-8665D01*
X404315Y-11220D01*
G54D24*
X409938Y-27831D02*
X409938Y-7387D01*
X415049Y-7387D01*
X417093Y-8665D01*
X418115Y-11220D01*
X418115Y-13776D01*
X417093Y-16331D01*
X415049Y-17609D01*
X409938Y-17609D01*
G54D24*
X423738Y-27831D02*
X423738Y-7387D01*
X428849Y-7387D01*
X430893Y-8665D01*
X431915Y-11220D01*
X431915Y-13776D01*
X430893Y-16331D01*
X428849Y-17609D01*
X423738Y-17609D01*
G54D24*
X445715Y-11220D02*
X445715Y-23998D01*
X444693Y-26553D01*
X442649Y-27831D01*
X440604Y-27831D01*
X438560Y-26553D01*
X437538Y-23998D01*
X437538Y-11220D01*
X438560Y-8665D01*
X440604Y-7387D01*
X442649Y-7387D01*
X444693Y-8665D01*
X445715Y-11220D01*
G54D24*
X451338Y-7387D02*
X451338Y-27831D01*
X456449Y-15053D01*
X461560Y-27831D01*
X461560Y-7387D01*
G54D24*
X474293Y-27831D02*
X467138Y-27831D01*
X467138Y-7387D01*
X474293Y-7387D01*
G54D24*
X467138Y-17609D02*
X474293Y-17609D01*
G54D24*
X484026Y-17609D02*
X487093Y-20165D01*
X488115Y-22720D01*
X488115Y-27831D01*
G54D24*
X479938Y-27831D02*
X479938Y-7387D01*
X485049Y-7387D01*
X487093Y-8665D01*
X488115Y-11220D01*
X488115Y-13776D01*
X487093Y-16331D01*
X485049Y-17609D01*
X479938Y-17609D01*
X38100Y-52688D02*
G54D25*
D03*
X110775Y-124894D02*
G54D26*
D03*
G36*
X401719Y-202572D02*
X408154Y-196138D01*
X417284Y-196138D01*
X423719Y-202572D01*
X423719Y-211702D01*
X417284Y-218138D01*
X408154Y-218138D01*
X401719Y-211702D01*
X401719Y-202572D01*
G37*
G54D27*
X295275Y-69356D02*
X295275Y-83644D01*
X279400Y-99519D01*
X256381Y-99519D01*
X253206Y-101106D01*
X257175Y-99519D01*
X243681Y-104281D01*
X88106Y-104281D01*
G54D19*
X110775Y-124894D02*
X144462Y-126506D01*
X290512Y-126506D01*
X315119Y-101900D01*
X315119Y-67769D01*
G54D19*
X234950Y-276525D02*
X234950Y-231281D01*
X457994Y-52512D02*
G54D25*
D03*
X110775Y-150288D02*
G54D26*
D03*
G54D19*
X110775Y-175688D02*
X104775Y-204391D01*
X103981Y-245269D01*
G54D28*
X42466Y-118569D02*
X62388Y-105281D01*
X110775Y-175688D02*
G54D26*
D03*
G36*
X198612Y-272691D02*
X205048Y-266256D01*
X214178Y-266256D01*
X220612Y-272691D01*
X220612Y-281821D01*
X214178Y-288256D01*
X205048Y-288256D01*
X198612Y-281821D01*
X198612Y-272691D01*
G37*
G54D19*
X19431Y-340067D02*
X23399Y-340067D01*
X23399Y-367848D01*
X22606Y-368642D01*
X22509Y-368245D01*
X5143Y-368245D01*
X5143Y-340860D01*
X5937Y-340067D01*
X18637Y-340067D01*
G54D29*
X42466Y-118569D02*
X42825Y-233662D01*
X49175Y-255094D01*
X58628Y-266644D01*
G54D19*
X409538Y-81125D02*
X503200Y-80331D01*
G54D30*
X110775Y-150288D02*
X311509Y-150319D01*
X334131Y-124919D01*
G54D28*
X334925Y-124125D02*
X334925Y-66181D01*
X86300Y-237384D02*
G54D31*
D03*
X86300Y-207003D02*
G54D31*
D03*
X261406Y-268225D02*
G54D31*
D03*
X261044Y-297306D02*
G54D31*
D03*
X360006Y-26472D02*
G54D31*
D03*
X332006Y-26472D02*
G54D31*
D03*
X30628Y-266644D02*
G54D31*
D03*
X58628Y-266644D02*
G54D31*
D03*
X25762Y-52369D02*
G54D32*
D03*
X62162Y-52369D02*
G54D32*
D03*
X468562Y-52369D02*
G54D32*
D03*
X446338Y-52369D02*
G54D33*
D03*
G54D19*
X408238Y-141131D02*
X416175Y-149069D01*
G54D34*
X62388Y-206881D02*
X86300Y-207003D01*
G54D34*
X58628Y-266644D02*
X62568Y-301935D01*
G54D34*
X201978Y-25112D02*
X167053Y-36225D01*
G54D19*
X234919Y-67475D02*
X234919Y-85494D01*
X143241Y-85494D01*
X114666Y-70809D01*
G54D19*
X496856Y-171819D02*
X503200Y-142641D01*
G36*
X401719Y-152966D02*
X408154Y-146531D01*
X417284Y-146531D01*
X423719Y-152966D01*
X423719Y-162096D01*
X417284Y-168531D01*
X408154Y-168531D01*
X401719Y-162096D01*
X401719Y-152966D01*
G37*
G54D35*
X412719Y-157531D02*
X412719Y-207138D01*
G54D19*
X75188Y-206209D02*
X86916Y-191197D01*
X86916Y-105075D01*
G54D36*
X394969Y-77156D02*
X370931Y-83981D01*
X360612Y-94300D01*
X360612Y-122875D01*
X331244Y-165738D01*
X185591Y-165738D01*
X124681Y-228044D01*
X413700Y-145088D02*
G54D16*
D03*
G54D19*
X103981Y-245269D02*
X86300Y-237384D01*
X58628Y-266644D01*
G54D19*
X214281Y-46838D02*
X201978Y-25112D01*
G54D37*
X11826Y-94884D02*
X11826Y-98884D01*
X7659Y-98884D01*
X5993Y-97884D01*
X5159Y-95884D01*
X5159Y-93884D01*
X5993Y-91884D01*
X7659Y-90884D01*
X15993Y-90884D01*
X17659Y-91884D01*
X18493Y-93884D01*
X18493Y-95884D01*
X17659Y-97884D01*
X15993Y-98884D01*
G54D37*
X5159Y-102551D02*
X18493Y-102551D01*
X18493Y-107551D01*
X17659Y-109551D01*
X15993Y-110551D01*
X14326Y-110551D01*
X12659Y-109551D01*
X11826Y-107551D01*
X11826Y-102551D01*
G54D37*
X15993Y-126085D02*
X7659Y-126085D01*
X5993Y-125085D01*
X5159Y-123085D01*
X5159Y-121085D01*
X5993Y-119085D01*
X7659Y-118085D01*
X15993Y-118085D01*
X17659Y-119085D01*
X18493Y-121085D01*
X18493Y-123085D01*
X17659Y-125085D01*
X15993Y-126085D01*
G54D28*
X209612Y-277256D02*
X209612Y-294022D01*
X209550Y-294084D01*
G54D29*
X186103Y-256094D02*
X185738Y-274241D01*
X186000Y-300769D01*
G36*
X176030Y-221986D02*
X192030Y-221985D01*
X192031Y-237985D01*
X176031Y-237986D01*
X176030Y-221986D01*
G37*
G36*
X176824Y-252148D02*
X192824Y-252147D01*
X192825Y-268147D01*
X176825Y-268148D01*
X176824Y-252148D01*
G37*
G36*
X113681Y-223479D02*
X120116Y-217044D01*
X129246Y-217044D01*
X135681Y-223479D01*
X135681Y-232609D01*
X129246Y-239044D01*
X120116Y-239044D01*
X113681Y-232609D01*
X113681Y-223479D01*
G37*
G36*
X145828Y-223876D02*
X152263Y-217441D01*
X161393Y-217441D01*
X167828Y-223876D01*
X167828Y-233006D01*
X161393Y-239441D01*
X152263Y-239441D01*
X145828Y-233006D01*
X145828Y-223876D01*
G37*
G54D38*
X156828Y-228441D02*
X182486Y-228441D01*
X184031Y-229985D01*
X334566Y-481806D02*
G54D39*
D03*
X207566Y-481806D02*
G54D39*
D03*
X207566Y-608806D02*
G54D39*
D03*
X334566Y-608806D02*
G54D39*
D03*
X271066Y-456406D02*
G54D39*
D03*
X173037Y-481806D02*
G54D39*
D03*
X46037Y-481806D02*
G54D39*
D03*
X46037Y-608806D02*
G54D39*
D03*
X173037Y-608806D02*
G54D39*
D03*
X109538Y-456406D02*
G54D39*
D03*
X667147Y-482203D02*
G54D39*
D03*
X540147Y-482203D02*
G54D39*
D03*
X540147Y-609203D02*
G54D39*
D03*
X667147Y-609203D02*
G54D39*
D03*
X603647Y-456803D02*
G54D39*
D03*
X504031Y-481806D02*
G54D39*
D03*
X377031Y-481806D02*
G54D39*
D03*
X377031Y-608806D02*
G54D39*
D03*
X504031Y-608806D02*
G54D39*
D03*
X440531Y-456406D02*
G54D39*
D03*
X121047Y-367903D02*
G54D40*
D03*
X146447Y-367903D02*
G54D40*
D03*
X171847Y-367903D02*
G54D40*
D03*
X177225Y-323638D02*
G54D31*
D03*
X147062Y-324432D02*
G54D31*
D03*
G54D29*
X146447Y-367903D02*
X146388Y-323757D01*
X147062Y-324432D01*
X175816Y-417116D02*
G54D40*
D03*
G54D29*
X173037Y-481806D02*
X175816Y-417116D01*
X111125Y-416322D02*
G54D40*
D03*
X301625Y-430609D02*
G54D40*
D03*
X225425Y-430609D02*
G54D40*
D03*
X456406Y-426244D02*
G54D40*
D03*
X380206Y-426244D02*
G54D40*
D03*
X624681Y-428228D02*
G54D40*
D03*
X548481Y-428228D02*
G54D40*
D03*
X203200Y-406400D02*
G54D40*
D03*
X228600Y-406400D02*
G54D40*
D03*
X254000Y-406400D02*
G54D40*
D03*
G36*
X244293Y-333111D02*
X260293Y-333110D01*
X260294Y-349110D01*
X244294Y-349111D01*
X244293Y-333111D01*
G37*
G36*
X245086Y-363273D02*
X261086Y-363272D01*
X261088Y-379272D01*
X245088Y-379273D01*
X245086Y-363273D01*
G37*
G54D29*
X228600Y-406400D02*
X252412Y-371947D01*
X253087Y-371273D01*
X330994Y-407591D02*
G54D40*
D03*
X356394Y-407591D02*
G54D40*
D03*
X381794Y-407591D02*
G54D40*
D03*
G36*
X324550Y-298816D02*
X340550Y-298815D01*
X340550Y-314815D01*
X324550Y-314816D01*
X324550Y-298816D01*
G37*
G36*
X325343Y-328979D02*
X341343Y-328978D01*
X341344Y-344978D01*
X325344Y-344979D01*
X325343Y-328979D01*
G37*
G54D29*
X356394Y-407591D02*
X332669Y-337653D01*
X333344Y-336978D01*
X419100Y-406400D02*
G54D40*
D03*
X444500Y-406400D02*
G54D40*
D03*
X469900Y-406400D02*
G54D40*
D03*
G36*
X370102Y-299376D02*
X386102Y-299376D01*
X386103Y-315376D01*
X370103Y-315376D01*
X370102Y-299376D01*
G37*
G36*
X370896Y-329539D02*
X386896Y-329538D01*
X386897Y-345538D01*
X370897Y-345539D01*
X370896Y-329539D01*
G37*
G54D29*
X444500Y-406400D02*
X416322Y-353616D01*
X378222Y-338213D01*
X378896Y-337538D01*
G54D29*
X280956Y-275938D02*
X280956Y-315944D01*
X177225Y-323638D01*
G54D29*
X333344Y-275144D02*
X332550Y-306816D01*
G54D29*
X377031Y-481806D02*
X380206Y-426244D01*
G54D29*
X334566Y-481806D02*
X301625Y-430609D01*
G54D29*
X504031Y-481806D02*
X456406Y-426244D01*
G54D29*
X667147Y-482203D02*
X624681Y-428228D01*
G54D29*
X540147Y-482203D02*
X537766Y-456406D01*
X548481Y-428228D01*
G54D29*
X496856Y-171819D02*
X497253Y-239122D01*
X391288Y-370791D02*
G54D40*
D03*
G54D29*
X419100Y-406400D02*
X391288Y-370791D01*
G54D29*
X380206Y-426244D02*
X381794Y-407591D01*
X325406Y-373172D02*
G54D40*
D03*
G54D29*
X330994Y-407591D02*
X325406Y-373172D01*
X199597Y-346978D02*
G54D40*
D03*
G54D29*
X203200Y-406400D02*
X199597Y-346978D01*
G54D29*
X452009Y-268794D02*
X413512Y-281750D01*
X452009Y-268794D01*
X497253Y-239122D01*
X56753Y-659606D02*
G54D41*
D03*
X107553Y-659606D02*
G54D41*
D03*
X158353Y-659606D02*
G54D41*
D03*
X220266Y-659606D02*
G54D41*
D03*
X271066Y-659606D02*
G54D41*
D03*
X321866Y-659606D02*
G54D41*
D03*
X385762Y-659606D02*
G54D41*
D03*
X436562Y-659606D02*
G54D41*
D03*
X487362Y-659606D02*
G54D41*
D03*
X536972Y-660400D02*
G54D41*
D03*
X587772Y-660400D02*
G54D41*
D03*
X638572Y-660400D02*
G54D41*
D03*
G54D22*
X252293Y-341110D02*
X301228Y-341709D01*
X301197Y-263634D01*
G54D22*
X184824Y-260148D02*
X118860Y-260148D01*
X103981Y-245269D01*
G54D22*
X503200Y-142641D02*
X503200Y-80331D01*
G54D19*
X111125Y-416322D02*
X150812Y-393700D01*
X171450Y-368300D01*
X171847Y-367903D01*
G54D42*
X199597Y-346978D02*
X202406Y-349250D01*
X203200Y-406400D01*
G54D29*
X504031Y-481806D02*
X511969Y-521097D01*
X562372Y-521097D01*
X574675Y-427434D01*
X624681Y-428228D01*
G54D29*
X456406Y-426244D02*
X456803Y-426244D01*
X421481Y-431006D01*
X405209Y-451247D01*
X393303Y-519112D01*
X364728Y-519112D01*
X334566Y-481806D01*
G54D29*
X173037Y-481806D02*
X181372Y-518319D01*
X223838Y-517128D01*
X236934Y-452438D01*
X255984Y-429816D01*
X301625Y-430609D01*
G54D29*
X225425Y-430609D02*
X225425Y-430609D01*
X207566Y-481806D01*
G54D29*
X254000Y-406400D02*
X244078Y-419894D01*
X225425Y-430609D01*
X20772Y-671134D02*
G54D25*
D03*
X20772Y-652990D02*
G54D43*
D03*
X20772Y-689390D02*
G54D43*
D03*
X679266Y-672075D02*
G54D25*
D03*
X679188Y-651403D02*
G54D44*
D03*
X679188Y-687803D02*
G54D44*
D03*
G54D29*
X670719Y-389334D02*
X624681Y-428625D01*
G36*
X422300Y-326258D02*
X427858Y-320700D01*
X435742Y-320700D01*
X441300Y-326258D01*
X441300Y-334142D01*
X435742Y-339700D01*
X427858Y-339700D01*
X422300Y-334142D01*
X422300Y-326258D01*
G37*
G54D29*
X431800Y-330200D02*
X461962Y-330200D01*
X518319Y-389334D01*
G54D29*
X431800Y-330200D02*
X413512Y-281750D01*
X561181Y-18653D02*
G54D45*
D03*
X611981Y-18653D02*
G54D45*
D03*
G54D46*
X561181Y-18653D02*
X569119Y-84534D01*
G54D46*
X611981Y-18653D02*
X619919Y-84534D01*
G36*
X424512Y-261708D02*
X418077Y-268143D01*
X408947Y-268143D01*
X402512Y-261708D01*
X402512Y-252578D01*
X408947Y-246143D01*
X418077Y-246143D01*
X424512Y-252578D01*
X424512Y-261708D01*
G37*
G36*
X424512Y-236708D02*
X418077Y-243143D01*
X408947Y-243143D01*
X402512Y-236708D01*
X402512Y-227578D01*
X408947Y-221143D01*
X418077Y-221143D01*
X424512Y-227578D01*
X424512Y-236708D01*
G37*
G36*
X424512Y-286315D02*
X418077Y-292750D01*
X408947Y-292750D01*
X402512Y-286315D01*
X402512Y-277185D01*
X408947Y-270750D01*
X418077Y-270750D01*
X424512Y-277185D01*
X424512Y-286315D01*
G37*
G54D47*
X413512Y-232143D02*
X413512Y-281750D01*
X569119Y-84534D02*
G54D45*
D03*
X619919Y-84534D02*
G54D45*
D03*
X670719Y-389334D02*
G54D45*
D03*
X518319Y-389334D02*
G54D45*
D03*
G54D29*
X11588Y-156081D02*
X11588Y-352555D01*
X11768Y-352735D01*
G54D29*
X186000Y-300769D02*
X256047Y-300769D01*
X261044Y-297306D01*
G54D29*
X261044Y-297306D02*
X256047Y-300769D01*
G54D19*
X373856Y-180975D02*
X223838Y-180975D01*
X207566Y-196453D01*
G54D19*
X207566Y-196453D02*
X207566Y-275209D01*
X209612Y-277256D01*
G54D42*
X412719Y-207138D02*
X412750Y-209550D01*
X412750Y-184150D01*
X412719Y-182138D01*
G54D48*
X469900Y-406400D02*
X494506Y-419894D01*
X546100Y-425450D01*
X548481Y-428228D01*
G54D48*
X46037Y-481806D02*
X46435Y-482203D01*
X73025Y-431006D01*
X111125Y-416322D01*
X120619Y-345788D02*
G54D40*
D03*
G54D48*
X121047Y-367903D02*
X121047Y-346216D01*
X120619Y-345788D01*
X120619Y-345788D02*
G54D39*
D03*
X199597Y-346978D02*
G54D39*
D03*
X325406Y-373172D02*
G54D39*
D03*
X391288Y-370791D02*
G54D39*
D03*
X431800Y-330200D02*
G54D39*
D03*
X412719Y-207138D02*
G54D39*
D03*
X670719Y-389334D02*
G54D39*
D03*
X518319Y-389334D02*
G54D39*
D03*
G36*
X114325Y-260774D02*
X119883Y-255216D01*
X127767Y-255216D01*
X133325Y-260774D01*
X133325Y-268658D01*
X127767Y-274216D01*
X119883Y-274216D01*
X114325Y-268658D01*
X114325Y-260774D01*
G37*
X518319Y-389334D02*
G54D49*
D03*
X670719Y-389334D02*
G54D49*
D03*
X173037Y-481806D02*
G54D39*
D03*
X46037Y-481806D02*
G54D39*
D03*
X46037Y-608806D02*
G54D39*
D03*
X173037Y-608806D02*
G54D39*
D03*
X109538Y-456406D02*
G54D39*
D03*
X334566Y-481806D02*
G54D39*
D03*
X207566Y-481806D02*
G54D39*
D03*
X207566Y-608806D02*
G54D39*
D03*
X334566Y-608806D02*
G54D39*
D03*
X271066Y-456406D02*
G54D39*
D03*
X504031Y-481806D02*
G54D39*
D03*
X377031Y-481806D02*
G54D39*
D03*
X377031Y-608806D02*
G54D39*
D03*
X504031Y-608806D02*
G54D39*
D03*
X440531Y-456406D02*
G54D39*
D03*
X667147Y-482203D02*
G54D39*
D03*
X540147Y-482203D02*
G54D39*
D03*
X540147Y-609203D02*
G54D39*
D03*
X667147Y-609203D02*
G54D39*
D03*
X603647Y-456803D02*
G54D39*
D03*
X56753Y-659606D02*
G54D41*
D03*
X107553Y-659606D02*
G54D41*
D03*
X158353Y-659606D02*
G54D41*
D03*
X220266Y-659606D02*
G54D41*
D03*
X271066Y-659606D02*
G54D41*
D03*
X321866Y-659606D02*
G54D41*
D03*
X385762Y-659606D02*
G54D41*
D03*
X436562Y-659606D02*
G54D41*
D03*
X487362Y-659606D02*
G54D41*
D03*
X536972Y-660400D02*
G54D41*
D03*
X587772Y-660400D02*
G54D41*
D03*
X638572Y-660400D02*
G54D41*
D03*
X38100Y-52688D02*
G54D25*
D03*
X20772Y-671134D02*
G54D25*
D03*
X679266Y-671281D02*
G54D25*
D03*
X561181Y-18653D02*
G54D49*
D03*
X569119Y-84534D02*
G54D49*
D03*
X619919Y-84534D02*
G54D49*
D03*
X611981Y-18653D02*
G54D49*
D03*
G54D19*
X261406Y-268225D02*
X255056Y-254659D01*
X254794Y-227409D01*
G36*
X112Y-146162D02*
X22112Y-146162D01*
X22112Y-168162D01*
X112Y-168162D01*
X112Y-146162D01*
G37*
M02*
