; Drill file
; Format: 2.4 (00.0000)
M48
INCH
T01C0.0433
T02C0.0591
T03C0.128
%
G05
G90
T01
X004910Y-008980
X006170Y-008990
X004360Y-006920
X004360Y-005920
X004360Y-004920
X004610Y-001490
X006580Y-001430
X007950Y-000990
X008950Y-000990
X009920Y-000990
X010920Y-000990
X011890Y-000990
X015550Y-003040
X015610Y-004440
X016250Y-006200
X016250Y-007170
X016250Y-008160
X016250Y-009150
X014250Y-010930
X013250Y-010930
X012250Y-010930
X011250Y-010930
X010250Y-010920
X009250Y-010920
X008250Y-010920
X009480Y-012220
X010480Y-012220
X011480Y-012250
X012480Y-012250
X013480Y-012250
T02
X002370Y-010330
X003370Y-010330
X005370Y-010330
X006370Y-010330
X004370Y-012330
X002460Y-008140
X002460Y-007140
X002460Y-005140
X002460Y-004140
X000460Y-006140
T03
X001500Y-002070
X018030Y-002070
M30
